{
    "schema": {
        "type": "struct",
        "fields": [
            {
                "type": "struct",
                "fields": [
                    {
                        "type": "string",
                        "optional": true,
                        "field": "username"
                    }
                ],
                "optional": true,
                "name": "postgres.public.opportunity.Value",
                "field": "before"
            },
            {
                "type": "struct",
                "fields": [
                    {
                        "type": "string",
                        "optional": true,
                        "field": "username"
                    }
                ],
                "optional": true,
                "name": "postgres.public.opportunity.Value",
                "field": "after"
            },
            {
                "type": "struct",
                "fields": [
                    {
                        "type": "string",
                        "optional": false,
                        "field": "version"
                    },
                    {
                        "type": "string",
                        "optional": false,
                        "field": "connector"
                    },
                    {
                        "type": "string",
                        "optional": false,
                        "field": "name"
                    },
                    {
                        "type": "int64",
                        "optional": false,
                        "field": "ts_ms"
                    },
                    {
                        "type": "string",
                        "optional": true,
                        "name": "io.debezium.data.Enum",
                        "version": 1,
                        "parameters": {
                            "allowed": "true,last,false"
                        },
                        "default": "false",
                        "field": "snapshot"
                    },
                    {
                        "type": "string",
                        "optional": false,
                        "field": "db"
                    },
                    {
                        "type": "string",
                        "optional": false,
                        "field": "schema"
                    },
                    {
                        "type": "string",
                        "optional": false,
                        "field": "table"
                    },
                    {
                        "type": "int64",
                        "optional": true,
                        "field": "txId"
                    },
                    {
                        "type": "int64",
                        "optional": true,
                        "field": "lsn"
                    },
                    {
                        "type": "int64",
                        "optional": true,
                        "field": "xmin"
                    }
                ],
                "optional": false,
                "name": "io.debezium.connector.postgresql.Source",
                "field": "source"
            },
            {
                "type": "string",
                "optional": false,
                "field": "op"
            },
            {
                "type": "int64",
                "optional": true,
                "field": "ts_ms"
            }
        ],
        "optional": false,
        "name": "postgres.public.opportunity.Envelope"
    },
    "payload": {
        "before": null,
        "after": {
            "username": "user-0.9935613272544415"
        },
        "source": {
            "version": "1.0.0.Final",
            "connector": "postgresql",
            "name": "postgres",
            "ts_ms": 1579543433468,
            "snapshot": "false",
            "db": "opportunity",
            "schema": "public",
            "table": "opportunity",
            "txId": 495,
            "lsn": 23434288,
            "xmin": null
        },
        "op": "c",
        "ts_ms": 1579543433470
    }
}
